<?xml version="1.0" encoding="utf-8"?>
<!-- Generator: Adobe Illustrator 18.1.1, SVG Export Plug-In . SVG Version: 6.00 Build 0)  -->
<svg version="1.1" id="XMLID_1_" xmlns="http://www.w3.org/2000/svg" xmlns:xlink="http://www.w3.org/1999/xlink" x="0px" y="0px"
	 viewBox="0 0 185.5019 185.501" enable-background="new 0 0 185.5019 185.501" xml:space="preserve">
<g id="HTML_5_1_">
	<circle fill="#FDB73B" cx="92.751" cy="92.75" r="92.751"/>
	<g>
		<path fill="#D1D3D4" d="M92.9219,155.9541c-1.8594,0-3.7637-0.0498-5.6592-0.1489c-8.1074-0.4243-14.9727-1.625-20.9883-3.6709
			c-3.9482-1.3413-6.9258-2.7773-9.3711-4.519c-3.1855-2.2676-5.1143-4.7666-5.7344-7.4277l-0.0312-0.1309l0.0928-0.0278
			l-0.0938,0.0225c-0.04-0.1655-0.0752-0.3311-0.1025-0.4976L37.3506,56.0582c-0.0645-0.3877-0.1445-0.9282-0.209-1.3184
			c-0.3643-2.1714-0.0771-4.4146,0.8281-6.4858c1.1152-2.5542,3.167-4.9565,6.0967-7.1396c2.4756-1.8447,5.4844-3.481,9.1992-5.002
			c3.4111-1.396,7.1475-2.5557,11.4229-3.5449c8.1182-1.877,16.5479-2.8882,25.0547-3.0054
			c0.7822-0.0107,1.5664-0.0161,2.3506-0.0161c8.3809,0,16.2578,0.6489,23.4102,1.9287c9.3164,1.6675,16.4033,3.9727,22.3018,7.2544
			c4.0625,2.2612,10.8555,7.1421,10.7021,14.4248l-0.4316,0.0732l0.4316-0.0132l0.001,0.041l0.0059,0.0342l-0.002,0.0669
			l-0.0029,0.0225c-0.0879,1.0288-0.1094,1.2549-0.2139,1.7466l-13.834,84.4238c-0.0527,0.3145-0.1279,0.6245-0.2227,0.9321
			c-0.1416,0.5063-0.2373,0.7622-0.5322,1.4287c-0.124,0.2861-0.4648,0.938-0.8301,1.4785
			c-1.0137,1.499-2.0586,2.4614-2.9463,3.2051c-1.5596,1.3101-3.4209,2.3569-3.9541,2.647
			c-2.4004,1.2969-4.3896,2.0356-5.3457,2.3906c-3.6201,1.3472-8.3496,2.5205-12.9766,3.2192l-0.6084,0.0908
			C102.5322,155.6133,97.7793,155.9541,92.9219,155.9541z"/>
		<path fill="#58595B" d="M92.094,30.0458c7.8024,0,15.6586,0.5497,23.322,1.921c7.6367,1.3667,15.3926,3.4415,22.1465,7.1993
			c5.2755,2.936,10.5781,7.6909,10.4453,13.977c0,0.0418,0.0037,0.0972,0.0052,0.1442c-0.0013-0.0198-0.0038-0.0416-0.0048-0.0588
			c-0.0001-0.0042-0.0003-0.0084-0.0004-0.0125c0,0.0157,0,0.0314,0,0.0314s0-0.0084,0-0.0314c0,0.0038,0.0001,0.008,0.0004,0.0125
			c0.0015,0.05,0.0015,0.1,0.0015,0.1501c-0.0839,0.9662-0.1035,1.1747-0.2031,1.6425l-13.838,84.4468
			c-0.0488,0.291-0.1191,0.5801-0.207,0.8662c-0.1387,0.4932-0.2246,0.7246-0.5117,1.3731
			c-0.1211,0.2793-0.4473,0.8974-0.787,1.4013c-0.9747,1.4405-1.9883,2.377-2.8536,3.1016c-1.5351,1.29-3.3515,2.3086-3.871,2.5908
			c-2.3575,1.2735-4.3321,2.0088-5.2812,2.3614c-3.5918,1.3369-8.2832,2.5-12.877,3.1933
			c-0.2031,0.0303-0.4042,0.0606-0.6074,0.0908c-4.6367,0.6907-9.3475,1.0081-14.0511,1.0081c-1.8803,0-3.76-0.0508-5.6325-0.1487
			c-7.037-0.3682-14.1914-1.3789-20.8535-3.6445c-3.2441-1.1026-6.4707-2.4795-9.2422-4.4531
			c-2.4883-1.7715-4.8437-4.1553-5.5371-7.1338c0.0039,0.0166,0.0098,0.0322,0.0156,0.0488
			c-0.0175-0.0625-0.0332-0.125-0.0488-0.1875c-0.0038-0.0166-0.0096-0.0322-0.0137-0.0479
			c0.004,0.0157,0.0098,0.0303,0.0137,0.0459c-0.037-0.1533-0.0703-0.3066-0.0957-0.4609c0,0-12.0098-73.2822-13.6836-83.4956
			c-0.1269-0.7651-0.0781-0.5264-0.209-1.3188c-0.3476-2.0752-0.0644-4.2432,0.793-6.2041c1.2227-2.7999,3.459-5.0923,5.9375-6.939
			c2.7559-2.0537,5.8867-3.6284,9.0898-4.94c3.6602-1.4985,7.4786-2.6259,11.3458-3.5205
			c8.1581-1.8862,16.5585-2.8769,24.9492-2.9926C90.5309,30.0513,91.3118,30.0458,92.094,30.0458 M148.013,53.2873
			c0.0009,0.0125,0.0013,0.0242,0.0006,0.0335C148.0136,53.3104,148.0134,53.2991,148.013,53.2873 M92.094,29.0458
			c-0.7869,0-1.5723,0.0056-2.3578,0.0164c-8.5426,0.1178-17.0079,1.1332-25.1606,3.0182
			c-4.3026,0.9954-8.064,2.1629-11.4995,3.5693c-3.7545,1.5375-6.7993,3.1938-9.3084,5.0637
			c-3.0007,2.2358-5.1057,4.7056-6.2564,7.3406c-0.9444,2.1599-1.2429,4.5009-0.8629,6.7695
			c0.0635,0.3843,0.0836,0.5193,0.1031,0.651c0.0205,0.1385,0.0405,0.2736,0.1057,0.6662l13.6833,83.4937
			c0.0277,0.1683,0.063,0.3347,0.1025,0.501l-0.0024,0.0007l0.0059,0.0229l0.0131,0.0436c0.0062,0.0264,0.0146,0.0605,0.0244,0.098
			l-0.0018,0.0004c0.6479,2.7832,2.6434,5.3811,5.9311,7.7217c2.4858,1.7702,5.5047,3.2273,9.5004,4.5853
			c6.059,2.0605,12.9685,3.2696,21.123,3.6964c1.9039,0.0995,3.8165,0.15,5.6848,0.15c4.8824,0,9.6594-0.3428,14.1984-1.019
			l0.361-0.0539l0.2468-0.0369c4.6607-0.7034,9.4269-1.8861,13.0782-3.2451c0.9663-0.359,2.9783-1.1064,5.4077-2.4188
			c0.6986-0.3795,2.4865-1.4003,4.0391-2.705c0.9135-0.7649,1.9899-1.7569,3.0386-3.3068c0.3609-0.5352,0.7206-1.2049,0.8763-1.5639
			c0.3002-0.6781,0.4049-0.9598,0.5569-1.5001c0.0964-0.3128,0.1762-0.6475,0.2306-0.9717l13.8385-84.4503
			c0.1061-0.4932,0.1287-0.7526,0.2125-1.7177l0.0037-0.0432v-0.0287l0.0013,0.0001l0.0051-0.071l-0.004-0.0751l-0.0025-0.0611
			c0.1573-7.5663-6.7996-12.5778-10.9609-14.8937c-5.9489-3.3099-13.0846-5.6327-22.4566-7.3099
			C108.4104,29.6974,100.5044,29.0458,92.094,29.0458L92.094,29.0458z"/>
	</g>
	<path fill="#E6E7E8" d="M148.0078,53.2159c0,0.0273,0.0078,0.0542,0.0058,0.082c0-0.0518-0.0058-0.1025-0.0058-0.1548
		c0.1347-6.2861-5.168-11.041-10.4453-13.977c-6.7539-3.7578-14.5098-5.8326-22.1446-7.1993
		c-8.4316-1.5087-17.0976-2.0229-25.6679-1.9047c-8.3907,0.1157-16.791,1.1064-24.9492,2.9926
		c-3.8672,0.8946-7.6836,2.022-11.3458,3.5205c-3.2031,1.3116-6.3339,2.8863-9.0898,4.94c-2.4766,1.8467-4.7148,4.1391-5.9375,6.939
		c-1.3535,3.1015-1.2773,6.7211,0.4648,9.6723c1.7383,2.9439,4.6895,5.1187,7.6583,6.8569
		c3.3417,1.9571,6.9863,3.4053,10.6992,4.5811c7.9238,2.5107,16.2109,3.8574,24.5195,4.5
		c8.5723,0.6621,17.2168,0.5508,25.7676-0.3447c8.1855-0.8574,16.4179-2.4356,24.1035-5.3203
		c3.5625-1.337,7.0371-3.0098,10.0937-5.2276c2.7305-1.9804,5.2071-4.542,5.9864-7.8149c0.0097-0.0469,0.0625-0.1792,0.0625-0.2256
		c0.1211-0.5513,0.1367-0.7139,0.2265-1.7529C148.0097,53.3243,148.0097,53.2701,148.0078,53.2159
		C148.0078,53.2569,148.0078,53.2569,148.0078,53.2159C148.0078,53.2432,148.0078,53.2701,148.0078,53.2159z"/>
	<path fill="#58595B" d="M93.4765,36.4708c-22.9238-0.1524-41.832,6.7968-42.2324,15.5205
		c-0.4004,8.7241,17.8594,15.9199,40.7832,16.0727c22.9238,0.1519,41.832-6.7969,42.2324-15.521
		C134.6582,43.8189,116.4004,36.6231,93.4765,36.4708z"/>
	<path fill="#E44F26" d="M130.2265,57.9917c-0.0429,0.0372-0.08,0.0704-0.1132,0.0987c-0.7266,0.6211-1.4512,1.1279-2.0352,1.5029
		c-0.4356,0.2744-0.8965,0.5459-1.3945,0.8135c-0.0332,0.0195-0.0664,0.0371-0.1016,0.0566
		c-0.8633,0.46-1.8125,0.9092-2.8418,1.3418c-0.0664,0.0274-0.1289,0.0557-0.1934,0.083
		c-5.0644,2.1026-12.0117,3.8145-20.0371,4.6416c-1.5722,0.1553-3.289,0.293-4.6757,0.3692
		c-2.1211,0.1152-3.9532,0.1533-5.2012,0.164c-0.541,0.0039-1.084,0.0049-1.6328,0c-17.9727-0.164-31.5879-4.4492-36.7227-9.1093
		c5.3535-6.0425,20.5-10.3457,38.1485-10.229C110.625,47.8394,125.0625,52.1187,130.2265,57.9917z"/>
	<g>
		<g>
			<path fill="#E44F26" d="M75.3037,133.668c-2.0645-15.6797-4.293-31.3369-6.6485-46.9756c15.6827,4.5498,32.5108,4.5479,48.1934,0
				c-2.3682,15.6348-4.5869,31.293-6.6504,46.9707c-6.998,3.6607-10.541,5.0674-17.4717,7.0918
				C85.8144,138.7271,82.2832,137.3238,75.3037,133.668z"/>
			<path fill="#F1662A" d="M92.7529,136.8799c5.665-1.6386,8.542-2.7192,14.2676-5.4331
				c1.6601-13.3037,3.4297-26.5932,5.3066-39.8676c-7.7256,1.8159-11.6953,2.27-19.5742,2.27
				C92.7539,108.1929,92.7529,122.5362,92.7529,136.8799z"/>
			<path fill="#EBEBEB" d="M92.7529,110.7491c-3.0537,0-4.583-0.0713-7.627-0.3565c-0.2568-2.311-0.3867-3.4668-0.6503-5.7798
				c3.3037,0.3311,4.9628,0.4136,8.2773,0.4136c0-2.2358,0-3.3525,0-5.5884c-0.0078,0-0.0137,0-0.0215,0
				c-5.957-0.0009-8.9472-0.2661-14.8349-1.3198c0.08,0.6118,0.1191,0.9175,0.1982,1.5293
				c0.8164,6.2837,1.2129,9.4209,1.9824,15.6865c5.0381,0.8033,7.5899,1.0044,12.6748,1.0044
				C92.7519,114.1031,92.7529,112.9844,92.7529,110.7491z"/>
			<path fill="#EBEBEB" d="M92.7529,125.2627c-0.0098,0.003-0.0156,0.0049-0.0254,0.0079c-2.4678-0.6734-3.709-1.0577-6.1943-1.9263
				c-0.1895-1.7964-0.2862-2.6943-0.4805-4.4917c-1.2168-0.1021-1.8232-0.1646-3.0361-0.3135
				c-1.0381-0.1274-1.5557-0.2002-2.5899-0.3618c0.4346,3.5688,0.6475,5.3511,1.0664,8.9145
				c4.5108,1.9268,6.7676,2.7227,11.2325,3.9952c0.0107-0.002,0.0166-0.0049,0.0273-0.0069
				C92.7529,128.753,92.7529,127.5899,92.7529,125.2627z"/>
			<path fill="#FFFFFF" d="M92.7324,110.7491c0,2.2353,0.001,3.354,0.001,5.5893c2.7978,0.0005,4.1963-0.0605,6.9863-0.3027
				c-0.3193,2.9248-0.4736,4.3862-0.7822,7.3081c-2.4893,0.8682-3.7325,1.2534-6.2041,1.9258c0,2.3262,0,3.4892,0,5.8154
				c4.4668-1.2695,6.7295-2.0644,11.2441-3.9892c0.0449-0.3833,0.0645-0.5757,0.1094-0.9595
				c0.7051-5.9746,1.0693-8.9649,1.8164-14.9551c0.0771-0.6113,0.1162-0.9165,0.1934-1.5278
				c-0.6153,0.102-0.9249,0.1494-1.542,0.2392C99.8506,110.5792,97.4746,110.75,92.7324,110.7491z"/>
			<path fill="#FFFFFF" d="M92.7314,99.438c0,1.3887-0.001,2.0821-0.001,3.4707c0,0.8418,0,1.2627,0,2.1045
				c0,0.0054,0,0.0078,0,0.0132c5.6524,0.001,8.4903-0.2392,14.083-1.2002l0,0c0.0069-0.0014,0.0127-0.001,0.0196-0.0024
				c0.0654-0.5122,0.0976-0.7681,0.164-1.2803c0.1485-1.1553,0.2237-1.7329,0.3741-2.8887c0.08-0.6118,0.1201-0.9184,0.2002-1.5302
				C101.6806,99.1763,98.6904,99.439,92.7314,99.438z"/>
		</g>
	</g>
</g>
</svg>
