<?xml version="1.0" encoding="utf-8"?>
<!-- Generator: Adobe Illustrator 18.1.1, SVG Export Plug-In . SVG Version: 6.00 Build 0)  -->
<svg version="1.1" id="XMLID_2_" xmlns="http://www.w3.org/2000/svg" xmlns:xlink="http://www.w3.org/1999/xlink" x="0px" y="0px"
	 viewBox="0 0 186.502 186.501" enable-background="new 0 0 186.502 186.501" xml:space="preserve">
<g id="iOS">
	<path fill="#FFFFFF" stroke="#ABABAB" stroke-miterlimit="10" d="M93.25,0.5c51.2266,0,92.752,41.5259,92.752,92.7505
		S144.4766,186.001,93.25,186.001c-51.2246,0-92.75-41.5259-92.75-92.7505S42.0254,0.5,93.25,0.5"/>
	<g>
		<g>
			<path fill="#D1D3D4" d="M93.4209,156.4541c-1.8584,0-3.7627-0.0498-5.6582-0.1489c-8.1074-0.4243-14.9727-1.625-20.9883-3.6709
				c-3.9482-1.3413-6.9258-2.7773-9.3711-4.519c-3.1846-2.2676-5.1143-4.7661-5.7363-7.4272l0.0049-0.0015l-0.0332-0.1279
				l0.0625-0.0229l-0.0645,0.0156c-0.04-0.1655-0.0752-0.3311-0.1025-0.4976L37.8487,56.5581L37.75,55.9292
				c-0.0215-0.1431-0.04-0.2705-0.1104-0.6885c-0.3623-2.1738-0.0752-4.417,0.8301-6.4868c1.1152-2.5542,3.167-4.9565,6.0967-7.1396
				c2.4746-1.8452,5.4834-3.4814,9.1992-5.002c3.4111-1.396,7.1475-2.5557,11.4229-3.5449
				c8.1162-1.877,16.5449-2.8882,25.0527-3.0054c0.7832-0.0107,1.5664-0.0161,2.3506-0.0161c8.3828,0,16.2598,0.6489,23.4121,1.9287
				c9.3154,1.6675,16.4014,3.9722,22.2998,7.2544c4.0625,2.2612,10.8555,7.1421,10.7021,14.4248l-0.4316,0.0728l0.4316-0.0127
				l0.001,0.041l0.0059,0.0342l-0.002,0.0669l-0.0029,0.0225c-0.0879,1.0288-0.1094,1.2549-0.2139,1.7466l-13.834,84.4238
				c-0.0527,0.314-0.1279,0.6245-0.2227,0.9321c-0.1416,0.5063-0.2373,0.7622-0.5322,1.4287
				c-0.124,0.2861-0.4648,0.9375-0.8291,1.4785c-1.0127,1.4956-2.0566,2.459-2.9453,3.2046
				c-1.5596,1.3105-3.4209,2.3574-3.9541,2.6475c-2.4102,1.3018-4.3926,2.0371-5.3457,2.3906
				c-3.6191,1.3472-8.3496,2.5205-12.9766,3.2192l-0.6104,0.0908C103.0303,156.1133,98.2784,156.4541,93.4209,156.4541z"/>
		</g>
		<g>
			<path fill="#58595B" d="M92.5919,30.5458c7.8044,0,15.6603,0.5497,23.3241,1.921c7.6358,1.3667,15.3907,3.4414,22.1446,7.1992
				c5.2754,2.936,10.5781,7.6909,10.4453,13.9771c0,0.0421,0.0038,0.0984,0.0053,0.1456c-0.0013-0.0201-0.0039-0.0426-0.0049-0.0603
				c-0.0001-0.0043-0.0002-0.0084-0.0004-0.0126c0,0.0157,0,0.0314,0,0.0314s0-0.0084,0-0.0314
				c0,0.0038,0.0002,0.0081,0.0004,0.0126c0.0015,0.0499,0.0015,0.1,0.0015,0.15c-0.0839,0.9663-0.1035,1.1748-0.2031,1.6426
				l-13.8379,84.4468c-0.0488,0.291-0.1191,0.5801-0.207,0.8662c-0.1387,0.4932-0.2246,0.7246-0.5117,1.3731
				c-0.1211,0.2793-0.4473,0.8974-0.7871,1.4012c-0.9746,1.4406-1.9883,2.377-2.8516,3.1016
				c-1.5351,1.29-3.3516,2.3086-3.8711,2.5908c-2.3584,1.2735-4.331,2.0088-5.2812,2.3613c-3.5918,1.337-8.2832,2.5-12.877,3.1934
				c-0.2031,0.0303-0.4062,0.0606-0.6094,0.0908c-4.6367,0.6907-9.3463,1.008-14.0493,1.008c-1.88,0-3.7598-0.0507-5.6323-0.1486
				c-7.0391-0.3682-14.1914-1.3789-20.8535-3.6445c-3.2442-1.1026-6.4707-2.4796-9.2422-4.4532
				c-2.4883-1.7714-4.8438-4.1552-5.5391-7.1337c0.0059,0.0166,0.0117,0.0322,0.0176,0.0488
				c-0.0176-0.0625-0.0332-0.125-0.0488-0.1875c-0.0039-0.0166-0.0098-0.0322-0.0137-0.0479
				c0.0039,0.0157,0.0098,0.0303,0.0137,0.0459c-0.0371-0.1533-0.0703-0.3066-0.0957-0.4609c0,0-12.0117-73.2822-13.6856-83.4956
				c-0.125-0.7651-0.0761-0.5264-0.209-1.3188c-0.3457-2.0752-0.0625-4.2432,0.795-6.2041c1.2226-2.7998,3.459-5.0923,5.9375-6.939
				c2.7539-2.0537,5.8847-3.6284,9.0898-4.9399c3.6602-1.4985,7.4785-2.626,11.3457-3.5205
				c8.1563-1.8862,16.5567-2.877,24.9473-2.9927C91.0287,30.5513,91.81,30.5458,92.5919,30.5458 M148.5112,53.7887
				c0.0008,0.012,0.0012,0.0232,0.0006,0.0321C148.5118,53.8108,148.5116,53.8001,148.5112,53.7887 M92.5919,29.5458
				c-0.7865,0-1.5724,0.0055-2.3576,0.0164c-8.5434,0.1178-17.0081,1.1333-25.1588,3.0183
				c-4.3019,0.995-8.0633,2.1626-11.4993,3.5693c-3.7552,1.5366-6.8002,3.193-9.3087,5.0637
				c-3.0005,2.2356-5.1054,4.7053-6.2561,7.3405c-0.9438,2.1584-1.243,4.4991-0.865,6.7686
				c0.0694,0.4139,0.088,0.5391,0.1089,0.6805c0.0191,0.1292,0.0401,0.2712,0.0996,0.6353l13.6857,83.4961
				c0.0273,0.1655,0.0618,0.3295,0.1007,0.4933l-0.0025,0.0007l0.0069,0.0278l0.0148,0.0493
				c0.0062,0.0261,0.0143,0.0591,0.0236,0.0952l-0.0036,0.001c0.6497,2.7833,2.6459,5.381,5.933,7.7209
				c2.4861,1.7704,5.5049,3.2275,9.5004,4.5854c6.0595,2.0606,12.969,3.2697,21.123,3.6963c1.9039,0.0995,3.8164,0.15,5.6845,0.15
				c4.8814,0,9.6578-0.3428,14.1967-1.0189l0.4441-0.0662l0.1654-0.0247c4.6617-0.7037,9.4279-1.8864,13.0784-3.2453
				c0.8869-0.329,2.9663-1.1004,5.4075-2.4186c0.699-0.3797,2.4873-1.4009,4.0393-2.7051c0.9144-0.7675,1.9906-1.7609,3.0365-3.3068
				c0.3612-0.5356,0.7209-1.2052,0.8763-1.564c0.3002-0.678,0.4049-0.9597,0.5569-1.5c0.0964-0.3127,0.1762-0.6473,0.2306-0.9716
				l13.8385-84.4504c0.1062-0.4935,0.1309-0.7773,0.2125-1.7178l0.0038-0.0432v-0.032l0.0016,0.0001l0.0048-0.0686l-0.0038-0.0728
				l-0.0026-0.0631c0.1573-7.5657-6.7997-12.5773-10.9608-14.8932c-5.9487-3.3098-13.0838-5.6326-22.4547-7.3098
				C108.9106,30.1974,101.0039,29.5458,92.5919,29.5458L92.5919,29.5458z"/>
		</g>
	</g>
	<path fill="#E6E7E8" d="M148.5059,53.7159c0,0.0273,0.0078,0.0542,0.0059,0.082c0-0.0518-0.0059-0.1025-0.0059-0.1548
		c0.1348-6.2861-5.168-11.041-10.4453-13.977c-6.7539-3.7579-14.5088-5.8326-22.1446-7.1993
		c-8.4316-1.5088-17.0957-2.0229-25.666-1.9048c-8.3906,0.1158-16.791,1.1065-24.9492,2.9927
		c-3.8672,0.8946-7.6855,2.022-11.3457,3.5205c-3.2031,1.3116-6.334,2.8863-9.0898,4.94c-2.4785,1.8467-4.7149,4.1391-5.9375,6.9389
		c-1.3555,3.1016-1.2793,6.7212,0.4648,9.6724c1.7383,2.9439,4.6895,5.1187,7.6582,6.8569
		c3.3418,1.9571,6.9844,3.4053,10.6992,4.5811c7.9239,2.5107,16.209,3.8574,24.5176,4.5
		c8.5742,0.6621,17.2188,0.5508,25.7676-0.3447c8.1875-0.8575,16.4199-2.4356,24.1035-5.3203
		c3.5625-1.337,7.0371-3.0098,10.0938-5.2276c2.7304-1.9805,5.207-4.542,5.9863-7.8149c0.0097-0.0469,0.0625-0.1792,0.0625-0.2256
		c0.1211-0.5513,0.1367-0.7139,0.2265-1.7529C148.5078,53.8243,148.5078,53.7701,148.5059,53.7159
		C148.5059,53.7569,148.5059,53.7569,148.5059,53.7159C148.5059,53.7432,148.5059,53.7701,148.5059,53.7159z"/>
	<path fill="#58595B" d="M93.9746,36.9707c-22.9238-0.1523-41.83,6.7969-42.2304,15.5205
		c-0.4004,8.7242,17.8574,15.92,40.7812,16.0728c22.9258,0.1519,41.8321-6.7969,42.2324-15.521
		C135.1563,44.3189,116.9004,37.1231,93.9746,36.9707z"/>
	<path fill="#E2E2E2" d="M130.7246,58.4917c-0.041,0.0371-0.08,0.0703-0.1132,0.0987c-0.7266,0.6211-1.4512,1.1279-2.0332,1.5029
		c-0.4356,0.2744-0.8985,0.5459-1.3946,0.8135c-0.0332,0.0195-0.0664,0.0371-0.1015,0.0566
		c-0.8633,0.46-1.8145,0.9092-2.8438,1.3418c-0.0644,0.0274-0.1269,0.0557-0.1933,0.083
		c-5.0645,2.1026-12.0118,3.8145-20.0352,4.6416c-1.5723,0.1553-3.2891,0.293-4.6777,0.3692
		c-2.1211,0.1152-3.9512,0.1533-5.1993,0.164c-0.5429,0.0039-1.0859,0.0049-1.6328,0c-17.9726-0.164-31.5879-4.4492-36.7226-9.1093
		c5.3535-6.0425,20.5-10.3458,38.1465-10.2291C111.1231,48.3394,125.5625,52.6187,130.7246,58.4917z"/>
	<g>
		<g>
			<path fill="#020202" d="M84.5821,98.3326c1.2998-0.0459,2.6357,0.1728,3.955,0.2119c1.7979,0.0478,3.5284,0.7109,5.1006,1.4404
				c1.7344,0.7856,3.044,2.0679,4.2842,3.292c2.0781,2.4761,2.9824,5.5972,3.1631,8.7519c-0.0225,1.0557,0.2363,2.0821,0.043,3.149
				c-0.1983,1.1689-0.1983,2.3462-0.4971,3.5073c-0.6787,2.6401-1.7412,5.2725-3.4502,7.3857
				c-1.7568,2.4366-4.3174,4.1377-7.0801,4.4727c-0.8711,0.0732-1.7568-0.0488-2.6328-0.1006
				c-2.9521-0.0996-5.8008-2.2002-7.9736-4.7847c-3.1045-3.729-4.7471-8.56-5.2032-12.9165
				c-0.4628-4.1552,0.167-8.1894,2.7032-10.9477C78.6641,99.7725,81.4873,98.6465,84.5821,98.3326 M85.0889,99.5957
				c-3.1699,0.2471-5.9346,1.587-7.5117,3.7315c-1.6914,2.1811-2.1358,5.1011-2.1651,8.0581
				c0.087,3.2705,0.9873,6.7656,2.5157,10.0498c1.5185,3.0425,3.916,5.8496,6.8007,7.1045
				c1.4981,0.7422,3.0782,0.7373,4.6143,0.7861c1.7715-0.1172,3.4981-0.7876,4.9297-1.9502
				c3.1191-2.3696,4.8848-6.4795,5.4131-10.4062c0.0928-1.5528,0.122-3.106,0.1426-4.6543c-0.2168-3.3281-1.3135-6.6182-3.75-9.1094
				c-1.3389-1.2461-3.045-2.2163-4.9043-2.8506C89.2295,99.6314,87.1006,99.6402,85.0889,99.5957z"/>
			<path fill="#020202" d="M107.2764,100.5342c1.7197-1.8169,4.1357-3.3515,6.5654-3.7612c1.3155-0.2315,2.6807-0.6719,3.917-0.6231
				c0.9024,0.0298,1.7334,0.1949,2.5196,0.4063c-0.1465,0.4141-0.3458,0.8213-0.5733,1.2222
				c-1.75-0.4043-3.7666-0.5684-5.9297,0.0493c-1.6553,0.5346-3.374,1.2661-4.7217,2.4668
				c-1.7627,1.4883-2.8486,3.6142-2.7998,5.5742c0.0215,1.6416,0.8448,3.0771,2.1006,3.9189
				c2.625,1.792,6.2305,1.6968,8.6504,3.2432c0.9502,0.7236,1.9209,1.4883,2.168,2.814c0.3906,2.2231-0.1641,5.02-1.5908,7.5576
				c-1.8848,3.0654-4.8721,5.5918-7.7735,5.8823c-2.3593,0.585-4.7822,0.3096-6.6025-1.0854
				c0.1318-0.375,0.3066-0.7344,0.5205-1.0787c0.8516,0.3262,1.5908,0.8487,2.4775,1.0494c2.5459,0.5805,5.5635,0.0776,8.086-2.1636
				c2.8467-2.5269,4.4482-6.8682,3.5683-9.6851c-0.3779-1.081-1.1396-1.8833-2.1572-2.3462
				c-2.3769-1.2265-5.5762-1.3032-8.0088-2.9204c-1.3203-0.748-2.3125-2.0327-2.6416-3.5859
				C104.6045,105.1919,105.418,102.5557,107.2764,100.5342z"/>
			<path fill="#020202" d="M67.0821,96.792c0.5537,0.0078,1.2255,0.3697,1.6777,0.8921c0.1016,0.4536,0.2852,1.0532-0.0772,1.2705
				c-0.3105,0.2017-0.79,0.3697-1.2783-0.0195C66.4746,98.3975,66.3799,96.9829,67.0821,96.792z"/>
			<path fill="#020202" d="M67.9991,104.5782c0.3984,0.0879,0.7959,0.1982,1.2002,0.333
				c0.9169,7.0781,1.6777,14.1162,2.5595,21.1884c0.0557,0.4092,0.0821,0.8121,0.1123,1.2144
				c-0.3554-0.0723-0.7119-0.1704-1.0722-0.2969c-0.9512-7.0879-1.7569-14.1382-2.6875-21.2221
				C68.0518,105.3829,68.0293,104.98,67.9991,104.5782z"/>
		</g>
	</g>
</g>
</svg>
