<?xml version="1.0" encoding="utf-8"?>
<!-- Generator: Adobe Illustrator 18.1.1, SVG Export Plug-In . SVG Version: 6.00 Build 0)  -->
<svg version="1.1" id="XMLID_2_" xmlns="http://www.w3.org/2000/svg" xmlns:xlink="http://www.w3.org/1999/xlink" x="0px" y="0px"
	 viewBox="0 0 185.5019 185.5019" enable-background="new 0 0 185.5019 185.5019" xml:space="preserve">
<g id="Ruby">
	<linearGradient id="SVGID_1_" gradientUnits="userSpaceOnUse" x1="0" y1="92.751" x2="185.5019" y2="92.751">
		<stop  offset="0" style="stop-color:#9F3633"/>
		<stop  offset="0" style="stop-color:#9F3633"/>
		<stop  offset="0.54" style="stop-color:#A73532"/>
		<stop  offset="0.99" style="stop-color:#B13439"/>
		<stop  offset="1" style="stop-color:#B13439"/>
	</linearGradient>
	<circle fill="url(#SVGID_1_)" cx="92.751" cy="92.75" r="92.751"/>
	<g>
		<path fill="#D1D3D4" d="M92.9199,155.955c-1.8584,0-3.7617-0.0508-5.6572-0.1494c-8.1113-0.4248-14.9766-1.626-20.9883-3.6699
			c-3.9492-1.3438-6.9268-2.7793-9.3711-4.5195c-3.1826-2.2656-5.1113-4.7627-5.7324-7.4219l-0.0332-0.1377l0.084-0.0254
			l-0.084,0.0205c-0.041-0.1641-0.0762-0.3311-0.1035-0.498L37.3506,56.0586c-0.0645-0.3887-0.1445-0.9297-0.209-1.3193
			c-0.3643-2.1699-0.0781-4.4131,0.8281-6.4844c1.1152-2.5547,3.166-4.957,6.0967-7.1406c2.4775-1.8457,5.4873-3.4814,9.1992-5.001
			c3.4121-1.3975,7.1484-2.5566,11.4229-3.5459c8.1211-1.877,16.5508-2.8877,25.0547-3.0049
			c0.7822-0.0107,1.5645-0.0166,2.3486-0.0166c8.3799,0,16.2568,0.6494,23.4121,1.9287c9.3184,1.668,16.4043,3.9736,22.3018,7.2549
			c4.0625,2.2617,10.8555,7.1426,10.7021,14.4248l-0.4355,0.0732l0.4355-0.0127l0.0068,0.0742l-0.0049,0.0898
			c-0.0879,1.0283-0.1094,1.2539-0.2139,1.7471l-13.834,84.4238c-0.0527,0.3145-0.1279,0.625-0.2227,0.9316
			c-0.1406,0.5039-0.2363,0.7598-0.5322,1.4277c-0.125,0.2881-0.4658,0.9404-0.8301,1.4795
			c-1.0156,1.501-2.0596,2.4629-2.9463,3.2061c-1.5732,1.3203-3.4248,2.3584-3.9541,2.6455
			c-2.418,1.3066-4.4697,2.0664-5.3457,2.3906c-3.6152,1.3467-8.3447,2.5195-12.9766,3.2188l-0.6055,0.0918
			C102.5332,155.6142,97.7812,155.955,92.9199,155.955z"/>
		<path fill="#58595B" d="M92.0926,30.0462c7.8029,0,15.6595,0.55,23.3234,1.9206c7.6367,1.3671,15.3926,3.4414,22.1465,7.1992
			c5.2755,2.9365,10.5781,7.6914,10.4453,13.9775c0,0.0414,0.0037,0.097,0.0052,0.144c-0.0013-0.0197-0.0038-0.0411-0.0048-0.0582
			c-0.0001-0.0042-0.0003-0.0084-0.0004-0.0125c0,0.0157,0,0.0312,0,0.0312s0-0.0084,0-0.0312c0,0.0038,0.0001,0.008,0.0004,0.0125
			c0.0015,0.0495,0.0015,0.0991,0.0015,0.1496c-0.0839,0.9668-0.1035,1.1748-0.2031,1.6425l-13.838,84.4473
			c-0.0488,0.291-0.1191,0.5801-0.207,0.8652c-0.1387,0.4942-0.2246,0.7247-0.5117,1.3731
			c-0.1211,0.2793-0.4473,0.8984-0.787,1.4023c-0.9747,1.4395-1.9883,2.377-2.8536,3.1016
			c-1.5351,1.2891-3.3515,2.3086-3.871,2.5898c-2.3575,1.2735-4.3321,2.0098-5.2812,2.3614c-3.5918,1.3379-8.2832,2.5-12.877,3.1933
			c-0.2031,0.0313-0.4042,0.0606-0.6074,0.0918c-4.6371,0.6908-9.3485,1.0076-14.0526,1.0076c-1.8799,0-3.759-0.0506-5.631-0.1482
			c-7.037-0.3691-14.1914-1.3789-20.8535-3.6445c-3.2441-1.1035-6.4707-2.4805-9.2422-4.4532
			c-2.4871-1.7705-4.8414-4.1541-5.5361-7.1305c0.0039,0.0159,0.0093,0.0303,0.0146,0.0446
			c-0.0175-0.0625-0.0332-0.125-0.0488-0.1875c-0.0038-0.0156-0.0096-0.0312-0.0137-0.0469c0.004,0.0157,0.0098,0.0293,0.0137,0.045
			c-0.037-0.1524-0.0703-0.3067-0.0957-0.461c0,0-12.0098-73.2812-13.6836-83.4951c-0.1269-0.7646-0.0781-0.5264-0.209-1.3193
			c-0.3476-2.0743-0.0644-4.2422,0.793-6.2032c1.2227-2.8007,3.459-5.0927,5.9375-6.9394c2.7559-2.0537,5.8867-3.6289,9.0898-4.9395
			c3.6602-1.499,7.4786-2.6269,11.3458-3.5215c8.1581-1.8857,16.5585-2.8769,24.9492-2.9921
			C90.5304,30.0517,91.3108,30.0462,92.0926,30.0462 M148.013,53.2875c0.0009,0.0125,0.0013,0.0242,0.0006,0.0337
			C148.0136,53.3107,148.0134,53.2994,148.013,53.2875 M51.6562,140.0742c0.0004,0.0015,0.0007,0.0027,0.001,0.0042
			C51.6568,140.077,51.6565,140.0756,51.6562,140.0742 M92.0926,29.0462c-0.7864,0-1.5714,0.0056-2.3564,0.0164
			c-8.5395,0.1172-17.0047,1.1325-25.1606,3.0177c-4.3012,0.995-8.0627,2.1629-11.4996,3.5704
			c-3.7518,1.5351-6.7966,3.1913-9.3083,5.0631c-3.001,2.236-5.106,4.7059-6.2564,7.3411
			c-0.9445,2.1599-1.2429,4.5006-0.8629,6.7686c0.0633,0.3832,0.0834,0.5189,0.1029,0.6503
			c0.0206,0.1391,0.0405,0.2738,0.1058,0.6674l13.6833,83.4931c0.0278,0.1683,0.063,0.3358,0.1026,0.5014l-0.0026,0.0007
			l0.0064,0.0251l0.0143,0.0473c0.0048,0.0204,0.0117,0.0486,0.0199,0.0806l-0.0015,0.0003l0.003,0.0135l0.002,0.0078
			c0.6508,2.7802,2.6454,5.3751,5.9287,7.7124c2.4852,1.769,5.504,3.226,9.5001,4.5853c6.0558,2.0594,12.9653,3.2685,21.1232,3.6964
			c1.9041,0.0992,3.8161,0.1496,5.6834,0.1496c4.8854,0,9.663-0.3427,14.1999-1.0185l0.2944-0.0445l0.3179-0.0481
			c4.6607-0.7034,9.427-1.8861,13.0738-3.2445c0.8843-0.3276,2.9592-1.0961,5.4075-2.4187c0.541-0.2928,2.4291-1.352,4.0388-2.7038
			c0.9127-0.7642,1.9883-1.7555,3.0386-3.3067c0.3604-0.5345,0.7203-1.2049,0.8765-1.5652c0.3045-0.6876,0.4039-0.9553,0.557-1.5006
			c0.096-0.3102,0.1759-0.6448,0.2305-0.9702l13.8385-84.4508c0.1062-0.4936,0.1287-0.7529,0.2125-1.7177l0.0037-0.0432v-0.0301
			l0.0014,0.0001l0.005-0.0704l-0.004-0.0737l-0.0025-0.0615c0.1573-7.5659-6.7996-12.578-10.9608-14.8943
			c-5.9474-3.309-13.0831-5.6317-22.4567-7.3098C108.408,29.6977,100.5016,29.0462,92.0926,29.0462L92.0926,29.0462z"/>
	</g>
	<path fill="#E6E7E8" d="M148.0078,53.2168c0,0.0273,0.0078,0.0537,0.0058,0.082c0-0.0527-0.0058-0.1035-0.0058-0.1553
		c0.1347-6.2861-5.168-11.041-10.4453-13.9775c-6.7539-3.7578-14.5098-5.8321-22.1446-7.1992
		c-8.4316-1.5079-17.0976-2.0225-25.6679-1.9043c-8.3907,0.1152-16.791,1.1064-24.9492,2.9921
		c-3.8672,0.8946-7.6836,2.0225-11.3458,3.5215c-3.2031,1.3106-6.3339,2.8858-9.0898,4.9395
		c-2.4766,1.8467-4.7148,4.1387-5.9375,6.9394c-1.3535,3.1016-1.2773,6.7207,0.4648,9.6719
		c1.7383,2.9434,4.6895,5.1192,7.6583,6.8574c3.3417,1.9571,6.9863,3.4043,10.6992,4.5801c7.9238,2.5117,16.2109,3.8574,24.5195,4.5
		c8.5723,0.6621,17.2168,0.5508,25.7676-0.3437c8.1855-0.8575,16.4179-2.4356,24.1035-5.3203
		c3.5625-1.3379,7.0371-3.0098,10.0937-5.2286c2.7305-1.9804,5.2071-4.541,5.9864-7.8144c0.0097-0.0469,0.0625-0.1797,0.0625-0.2256
		c0.1211-0.5518,0.1367-0.7139,0.2265-1.7529C148.0097,53.3242,148.0097,53.2705,148.0078,53.2168
		C148.0078,53.2578,148.0078,53.2578,148.0078,53.2168C148.0078,53.2441,148.0078,53.2705,148.0078,53.2168z"/>
	<path fill="#58595B" d="M93.4765,36.4707c-22.9238-0.1524-41.832,6.7968-42.2324,15.5214
		c-0.4004,8.7247,17.8594,15.92,40.7832,16.0723c22.9238,0.1524,41.832-6.7969,42.2324-15.5215
		C134.6582,43.8193,116.4004,36.623,93.4765,36.4707z"/>
	<linearGradient id="SVGID_2_" gradientUnits="userSpaceOnUse" x1="55.2773" y1="57.3948" x2="130.2265" y2="57.3948">
		<stop  offset="0" style="stop-color:#DE4E2B"/>
		<stop  offset="1" style="stop-color:#DE4E2B"/>
	</linearGradient>
	<path fill="url(#SVGID_2_)" d="M130.2265,57.9921c-0.0429,0.0372-0.08,0.0704-0.1132,0.0997
		c-0.7266,0.6211-1.4512,1.1269-2.0352,1.5019c-0.4356,0.2754-0.8965,0.5469-1.3945,0.8145
		c-0.0332,0.0195-0.0664,0.0371-0.1016,0.0566c-0.8633,0.459-1.8125,0.9082-2.8418,1.3418
		c-0.0664,0.0273-0.1289,0.0547-0.1934,0.082c-5.0644,2.1035-12.0117,3.8145-20.0371,4.6426
		c-1.5722,0.1543-3.289,0.293-4.6757,0.3692c-2.1211,0.1152-3.9532,0.1523-5.2012,0.164c-0.541,0.0039-1.084,0.0039-1.6328,0
		c-17.9727-0.164-31.5879-4.4492-36.7227-9.1094c5.3535-6.0429,20.5-10.3466,38.1485-10.2304
		C110.625,47.8398,125.0625,52.1191,130.2265,57.9921z"/>
	<g>
		<g>
			<linearGradient id="SVGID_3_" gradientUnits="userSpaceOnUse" x1="110.2419" y1="136.4563" x2="100.0952" y2="118.5417">
				<stop  offset="0" style="stop-color:#F68F71"/>
				<stop  offset="0" style="stop-color:#F68F71"/>
				<stop  offset="0.41" style="stop-color:#DC5242"/>
				<stop  offset="0.99" style="stop-color:#A72C32"/>
				<stop  offset="1" style="stop-color:#A72C32"/>
			</linearGradient>
			<path fill-rule="evenodd" clip-rule="evenodd" fill="url(#SVGID_3_)" d="M77.8027,134.5302
				c12.3115,0.2735,21.8584-0.8623,33.8086-3.8662c1.7383-12.4863,3.5684-24.9609,5.5049-37.4179
				c-5.2774,10.3212-7.7949,15.2744-12.5244,24.875C95.8896,124.1523,87.332,129.8603,77.8027,134.5302z"/>
			<linearGradient id="SVGID_4_" gradientUnits="userSpaceOnUse" x1="114.0352" y1="122.3258" x2="102.5419" y2="114.6131">
				<stop  offset="0" style="stop-color:#9B3F34"/>
				<stop  offset="0" style="stop-color:#9B3F34"/>
				<stop  offset="0.99" style="stop-color:#A23E36"/>
				<stop  offset="1" style="stop-color:#A23E36"/>
			</linearGradient>
			<path fill-rule="evenodd" clip-rule="evenodd" fill="url(#SVGID_4_)" d="M101.2343,122.3877
				c4.3682,3.5683,6.46,5.2031,10.4327,8.2363c-0.5293-8.3252-0.837-12.4854-1.5479-20.8135
				C106.4638,115.0293,104.6816,117.539,101.2343,122.3877z"/>
			<linearGradient id="SVGID_5_" gradientUnits="userSpaceOnUse" x1="103.2283" y1="138.2076" x2="91.2104" y2="130.1428">
				<stop  offset="0" style="stop-color:#9B3F34"/>
				<stop  offset="0" style="stop-color:#9B3F34"/>
				<stop  offset="0.99" style="stop-color:#A23E36"/>
				<stop  offset="1" style="stop-color:#A23E36"/>
			</linearGradient>
			<path fill-rule="evenodd" clip-rule="evenodd" fill="url(#SVGID_5_)" d="M77.915,134.5019
				c12.3057,0.2666,21.8486-0.8769,33.792-3.8857c-8.3428,1.4414-12.6855,1.6035-21.3408,0.7929
				C85.292,133.0302,82.789,133.6435,77.915,134.5019z"/>
			<linearGradient id="SVGID_6_" gradientUnits="userSpaceOnUse" x1="76.5756" y1="116.6523" x2="78.72" y2="130.5889">
				<stop  offset="0" style="stop-color:#FFFFFF"/>
				<stop  offset="0" style="stop-color:#FFFFFF"/>
				<stop  offset="0.23" style="stop-color:#E28B6F"/>
				<stop  offset="0.46" style="stop-color:#DA6144"/>
				<stop  offset="0.99" style="stop-color:#A51E22"/>
				<stop  offset="1" style="stop-color:#A51E22"/>
			</linearGradient>
			<path fill-rule="evenodd" clip-rule="evenodd" fill="url(#SVGID_6_)" d="M70.5361,117.1806
				c3.0889,7.0684,4.5713,10.5303,7.4072,17.3321c1.753-7.0977,2.7022-10.669,4.751-17.8741
				C77.7451,117.208,75.3037,117.3134,70.5361,117.1806z"/>
			<linearGradient id="SVGID_7_" gradientUnits="userSpaceOnUse" x1="90.5045" y1="105.759" x2="91.2441" y2="119.0718">
				<stop  offset="0" style="stop-color:#FFFFFF"/>
				<stop  offset="0" style="stop-color:#FFFFFF"/>
				<stop  offset="0.23" style="stop-color:#E08A6D"/>
				<stop  offset="0.56" style="stop-color:#C14435"/>
				<stop  offset="0.99" style="stop-color:#B13430"/>
				<stop  offset="1" style="stop-color:#B13430"/>
			</linearGradient>
			<path fill-rule="evenodd" clip-rule="evenodd" fill="url(#SVGID_7_)" d="M81.2773,116.0136
				c8.1299,3.5147,12.1699,4.7813,19.9512,6.4346c-1.7588-7.9414-2.7119-11.9326-4.7656-19.9766
				C90.1084,108.4209,87.0508,111.1054,81.2773,116.0136z"/>
			<linearGradient id="SVGID_8_" gradientUnits="userSpaceOnUse" x1="103.8995" y1="92.4793" x2="105.8368" y2="100.8278">
				<stop  offset="0" style="stop-color:#FFFFFF"/>
				<stop  offset="0" style="stop-color:#FFFFFF"/>
				<stop  offset="0.18" style="stop-color:#DF8063"/>
				<stop  offset="0.4" style="stop-color:#C94D37"/>
				<stop  offset="0.99" style="stop-color:#B13430"/>
				<stop  offset="1" style="stop-color:#B13430"/>
			</linearGradient>
			<path fill-rule="evenodd" clip-rule="evenodd" fill="url(#SVGID_8_)" d="M96.6933,103.9238
				c7.5401-0.9209,11.3291-1.7725,18.7305-4.2803c-5.4053-3.0644-8.2715-4.7998-14.2471-8.7695
				C99.3193,96.1377,98.4218,98.7461,96.6933,103.9238z"/>
			<linearGradient id="SVGID_9_" gradientUnits="userSpaceOnUse" x1="96.5489" y1="89.7787" x2="107.8619" y2="84.1222">
				<stop  offset="0" style="stop-color:#FFFFFF"/>
				<stop  offset="0" style="stop-color:#FFFFFF"/>
				<stop  offset="0.54" style="stop-color:#C94838"/>
				<stop  offset="0.99" style="stop-color:#C12D2F"/>
				<stop  offset="1" style="stop-color:#C12D2F"/>
			</linearGradient>
			<path fill-rule="evenodd" clip-rule="evenodd" fill="url(#SVGID_9_)" d="M94.6816,87.1699
				c5.9619-0.1856,8.9434-0.5156,14.8252-1.6348c-3.709,2.544-5.5508,3.7236-9.1963,5.9053
				C98.0947,89.7988,96.9697,88.9462,94.6816,87.1699z"/>
			<linearGradient id="SVGID_10_" gradientUnits="userSpaceOnUse" x1="68.468" y1="111.6413" x2="69.2758" y2="119.7294">
				<stop  offset="0" style="stop-color:#FFFFFF"/>
				<stop  offset="0" style="stop-color:#FFFFFF"/>
				<stop  offset="0.31" style="stop-color:#DA6548"/>
				<stop  offset="0.99" style="stop-color:#C14433"/>
				<stop  offset="1" style="stop-color:#C14433"/>
			</linearGradient>
			<path fill-rule="evenodd" clip-rule="evenodd" fill="url(#SVGID_10_)" d="M67.3965,108.7675
				c0.1757,5.5371,0.2695,8.3067,0.4687,13.8496c1.1045-2.1816,1.6758-3.2812,2.8486-5.5019
				C69.4111,113.8017,68.747,112.1328,67.3965,108.7675z"/>
			<path fill-rule="evenodd" clip-rule="evenodd" fill="#FFFFFF" d="M67.1933,108.4765c1.376,3.5606,2.0508,5.3252,3.3741,8.833
				c4.6933,0.0772,7.0996-0.0527,11.9736-0.6562c5.4482-4.6494,8.3183-7.1807,14.2705-12.7529
				c1.7422-5.1319,2.6465-7.7178,4.5176-12.9375c-2.6485-1.4727-3.9922-2.2559-6.7227-3.92
				c-4.6885,1.7481-7.0127,2.4756-11.5771,3.6563c-3.5489,2.7881-10.0752,7.7519-10.3106,7.8193
				C72.4853,98.5849,68.8242,105.3359,67.1933,108.4765z"/>
			<linearGradient id="SVGID_11_" gradientUnits="userSpaceOnUse" x1="63.41" y1="122.9733" x2="99.8499" y2="85.5028">
				<stop  offset="0" style="stop-color:#BD2026"/>
				<stop  offset="0" style="stop-color:#BD2026"/>
				<stop  offset="0.07" style="stop-color:#FFFFFF"/>
				<stop  offset="0.17" style="stop-color:#FFFFFF"/>
				<stop  offset="0.27" style="stop-color:#C95841"/>
				<stop  offset="0.33" style="stop-color:#983734"/>
				<stop  offset="0.46" style="stop-color:#AE4231"/>
				<stop  offset="0.72" style="stop-color:#B93E2F"/>
				<stop  offset="0.99" style="stop-color:#DE4E2B"/>
				<stop  offset="1" style="stop-color:#DE4E2B"/>
			</linearGradient>
			<path fill-rule="evenodd" clip-rule="evenodd" fill="url(#SVGID_11_)" d="M76.4541,96.2343
				c7.3183-5.9502,17.7968-10.1757,21.6299-6.8427c3.832,3.333-0.6563,12.7295-8.0674,19.79
				c-7.4112,7.0605-16.1055,9.9355-19.8643,5.4121C66.3945,110.0722,69.1357,102.1845,76.4541,96.2343z"/>
			<linearGradient id="SVGID_12_" gradientUnits="userSpaceOnUse" x1="91.5683" y1="128.3169" x2="80.7136" y2="125.6378">
				<stop  offset="0" style="stop-color:#9F3633"/>
				<stop  offset="0" style="stop-color:#9F3633"/>
				<stop  offset="0.54" style="stop-color:#A73532"/>
				<stop  offset="0.99" style="stop-color:#B13439"/>
				<stop  offset="1" style="stop-color:#B13439"/>
			</linearGradient>
			<path fill-rule="evenodd" clip-rule="evenodd" fill="url(#SVGID_12_)" d="M77.9433,134.5019
				c1.7354-7.124,2.6758-10.7051,4.7041-17.9346c7.5284,3.1514,11.2618,4.3067,18.4795,5.8604
				C94.3144,129.5332,87.2324,135.1142,77.9433,134.5019z"/>
			<linearGradient id="SVGID_13_" gradientUnits="userSpaceOnUse" x1="111.4813" y1="113.7901" x2="101.784" y2="105.0987">
				<stop  offset="0" style="stop-color:#923C36"/>
				<stop  offset="0" style="stop-color:#923C36"/>
				<stop  offset="0.99" style="stop-color:#AA3531"/>
				<stop  offset="1" style="stop-color:#AA3531"/>
			</linearGradient>
			<path fill-rule="evenodd" clip-rule="evenodd" fill="url(#SVGID_13_)" d="M96.8388,103.8632
				c1.8682,7.4717,2.7383,11.1797,4.3555,18.5655c5.71-6.583,11.1758-14.2237,14.3174-22.8848
				C108.1338,102.0615,104.3554,102.9228,96.8388,103.8632z"/>
			<linearGradient id="SVGID_14_" gradientUnits="userSpaceOnUse" x1="115.1703" y1="96.3415" x2="110.6694" y2="91.5297">
				<stop  offset="0" style="stop-color:#8D3E36"/>
				<stop  offset="0" style="stop-color:#8D3E36"/>
				<stop  offset="0.99" style="stop-color:#AA3E37"/>
				<stop  offset="1" style="stop-color:#AA3E37"/>
			</linearGradient>
			<path fill-rule="evenodd" clip-rule="evenodd" fill="url(#SVGID_14_)" d="M115.4531,99.6572
				c2.4062-6.3867,3.7353-14.4531-6.0107-14.0986c-3.3184,2.2724-4.9678,3.332-8.2364,5.3134
				C107.1816,94.8457,110.0498,96.5879,115.4531,99.6572z"/>
			<path fill-rule="evenodd" clip-rule="evenodd" fill="#AA3E35" d="M67.8584,122.5332
				c1.0244,9.7324,7.3603,11.4677,10.0957,12.0088c-2.8262-6.7784-4.3047-10.2256-7.3828-17.2676
				C69.455,119.3974,68.9121,120.4462,67.8584,122.5332z"/>
			<radialGradient id="SVGID_15_" cx="102.7825" cy="103.8566" r="13.0728" gradientUnits="userSpaceOnUse">
				<stop  offset="0" style="stop-color:#B13430"/>
				<stop  offset="0" style="stop-color:#B13430"/>
				<stop  offset="0.99" style="stop-color:#923934"/>
				<stop  offset="1" style="stop-color:#923934"/>
			</radialGradient>
			<path fill-rule="evenodd" clip-rule="evenodd" fill="url(#SVGID_15_)" d="M96.8642,103.8886
				c4.4776,2.3858,13.0684,6.1905,13.2403,6.252c0.2656,0.0957,4.1836-6.8418,5.2558-10.5117
				C108.0517,102.1093,104.3076,102.955,96.8642,103.8886z"/>
			<radialGradient id="SVGID_16_" cx="85.138" cy="122.6635" r="16.4396" gradientUnits="userSpaceOnUse">
				<stop  offset="0" style="stop-color:#AE3531"/>
				<stop  offset="0" style="stop-color:#AE3531"/>
				<stop  offset="0.99" style="stop-color:#953A36"/>
				<stop  offset="1" style="stop-color:#953A36"/>
			</radialGradient>
			<path fill-rule="evenodd" clip-rule="evenodd" fill="url(#SVGID_16_)" d="M82.6406,116.5683
				c3.1719,6.1084,4.6885,9.0821,7.5771,14.918c4.2286-2.3526,7.6368-5.5322,10.8584-9.043
				C93.874,120.8798,90.1513,119.7226,82.6406,116.5683z"/>
			<linearGradient id="SVGID_17_" gradientUnits="userSpaceOnUse" x1="74.8424" y1="134.2782" x2="70.3676" y2="119.0967">
				<stop  offset="0" style="stop-color:#994939"/>
				<stop  offset="0" style="stop-color:#994939"/>
				<stop  offset="0.43" style="stop-color:#AA3A36"/>
				<stop  offset="0.99" style="stop-color:#B83936"/>
				<stop  offset="1" style="stop-color:#B83936"/>
			</linearGradient>
			<path fill-rule="evenodd" clip-rule="evenodd" fill="url(#SVGID_17_)" d="M70.5429,117.2841
				c-0.0566,5.0098-0.0732,7.5137-0.0937,12.5264c2.0644,3.2588,7.2568,4.3799,7.2969,4.3262
				C78.2783,133.4238,70.8388,117.1474,70.5429,117.2841z"/>
			<linearGradient id="SVGID_18_" gradientUnits="userSpaceOnUse" x1="106.1502" y1="87.8807" x2="115.0874" y2="91.8258">
				<stop  offset="0" style="stop-color:#B9392F"/>
				<stop  offset="0" style="stop-color:#B9392F"/>
				<stop  offset="0.44" style="stop-color:#A23A36"/>
				<stop  offset="0.99" style="stop-color:#8D463A"/>
				<stop  offset="1" style="stop-color:#8D463A"/>
			</linearGradient>
			<path fill-rule="evenodd" clip-rule="evenodd" fill="url(#SVGID_18_)" d="M101.1572,90.9121
				c6.4492,0.1582,9.6396-0.043,15.8428-0.9893c-0.5674-3.1738-3.0069-4.584-7.503-4.3857
				C106.1377,87.8379,104.4658,88.9111,101.1572,90.9121z"/>
		</g>
	</g>
</g>
</svg>
